<?xml version="1.0" encoding="UTF-8" standalone="no"?>
<svg
   viewBox="0 0 287.8038 276.79358"
   version="1.1"
   id="svg966"
   sodipodi:docname="branching_copy_once.svg"
   xml:space="preserve"
   width="287.8038"
   height="276.79358"
   inkscape:version="1.2.1 (9c6d41e410, 2022-07-14)"
   xmlns:inkscape="http://www.inkscape.org/namespaces/inkscape"
   xmlns:sodipodi="http://sodipodi.sourceforge.net/DTD/sodipodi-0.dtd"
   xmlns="http://www.w3.org/2000/svg"
   xmlns:svg="http://www.w3.org/2000/svg"><defs
     id="defs970" /><sodipodi:namedview
     id="namedview968"
     pagecolor="#ffffff"
     bordercolor="#666666"
     borderopacity="1.0"
     inkscape:showpageshadow="2"
     inkscape:pageopacity="0.0"
     inkscape:pagecheckerboard="0"
     inkscape:deskcolor="#d1d1d1"
     showgrid="false"
     inkscape:zoom="2.0058594"
     inkscape:cx="143.82863"
     inkscape:cy="159.53262"
     inkscape:window-width="3440"
     inkscape:window-height="1412"
     inkscape:window-x="0"
     inkscape:window-y="0"
     inkscape:window-maximized="1"
     inkscape:current-layer="svg966" /><!-- Font Awesome Free 5.15.4 by @fontawesome - https://fontawesome.com License - https://fontawesome.com/license/free (Icons: CC BY 4.0, Fonts: SIL OFL 1.1, Code: MIT License) --><path
     style="fill:#000000;fill-opacity:1;stroke:#010101;stroke-width:6.9388;stroke-linecap:butt;stroke-linejoin:miter;stroke-dasharray:none;stroke-opacity:1"
     d="m 78.841818,129.01965 27.714822,0.0247 v 0 0"
     id="path424-3"
     sodipodi:nodetypes="cccc" /><path
     style="fill:#000000;fill-opacity:1;stroke:#010101;stroke-width:6.9388;stroke-linecap:butt;stroke-linejoin:miter;stroke-dasharray:none;stroke-opacity:1"
     d="m 78.830879,130.19043 29.232651,88.25921 v 0 0"
     id="path424-3-2"
     sodipodi:nodetypes="cccc" /><path
     d="M 73.619582,88.370787 H 9.5797434 c -4.8211818,0 -8.73270508,3.845549 -8.73270508,8.585425 v 62.959658 c 0,4.73987 3.91152328,8.58542 8.73270508,8.58542 H 73.619582 c 4.82118,0 8.732708,-3.84555 8.732708,-8.58542 V 96.956212 c 0,-4.739876 -3.911528,-8.585425 -8.732708,-8.585425 z M 72.527987,159.91587 H 10.671332 c -0.600373,0 -1.0915886,-0.48291 -1.0915886,-1.07317 V 98.029393 c 0,-0.590254 0.4912156,-1.073181 1.0915886,-1.073181 h 61.856655 c 0.600378,0 1.091595,0.482927 1.091595,1.073181 V 158.8427 c 0,0.59026 -0.491217,1.07317 -1.091595,1.07317 z"
     id="path305"
     style="fill:#000000;fill-opacity:1;stroke:#010101;stroke-width:0.180391;stroke-opacity:1" /><path
     d="m 176.62257,88.413246 h -64.03983 c -4.82118,0 -8.73271,3.845548 -8.73271,8.585425 v 62.959669 c 0,4.73986 3.91153,8.58541 8.73271,8.58541 h 64.03983 c 4.82118,0 8.73271,-3.84555 8.73271,-8.58541 V 96.998671 c 0,-4.739877 -3.91153,-8.585425 -8.73271,-8.585425 z m -1.09159,71.545094 h -61.85666 c -0.60037,0 -1.09158,-0.48292 -1.09158,-1.07318 V 98.071851 c 0,-0.590253 0.49121,-1.07318 1.09158,-1.07318 h 61.85666 c 0.60037,0 1.09159,0.482927 1.09159,1.07318 v 60.813309 c 0,0.59026 -0.49122,1.07318 -1.09159,1.07318 z"
     id="path305-0"
     style="fill:#000000;fill-opacity:1;stroke:#010101;stroke-width:0.180391;stroke-opacity:1" /><path
     style="fill:#000000;fill-opacity:1;stroke:#010101;stroke-width:6.9388;stroke-linecap:butt;stroke-linejoin:miter;stroke-dasharray:none;stroke-opacity:1"
     d="m 182.10218,218.35606 27.71483,0.0248 v 0 0"
     id="path424-7"
     sodipodi:nodetypes="cccc" /><path
     d="m 176.72891,177.29044 h -64.03983 c -4.82118,0 -8.73271,3.84555 -8.73271,8.58543 v 62.95967 c 0,4.73986 3.91153,8.58541 8.73271,8.58541 h 64.03983 c 4.82118,0 8.73271,-3.84555 8.73271,-8.58541 v -62.95967 c 0,-4.73988 -3.91153,-8.58543 -8.73271,-8.58543 z m -1.09159,71.5451 h -61.85666 c -0.60037,0 -1.09158,-0.48292 -1.09158,-1.07318 v -60.81331 c 0,-0.59025 0.49121,-1.07318 1.09158,-1.07318 h 61.85666 c 0.60037,0 1.09159,0.48293 1.09159,1.07318 v 60.81331 c 0,0.59026 -0.49122,1.07318 -1.09159,1.07318 z"
     id="path305-0-5"
     style="fill:#000000;fill-opacity:1;stroke:#010101;stroke-width:0.180391;stroke-opacity:1" /><path
     d="m 278.58245,178.74264 h -64.03983 c -4.82118,0 -8.73271,3.84554 -8.73271,8.58542 v 62.95966 c 0,4.73986 3.91153,8.58541 8.73271,8.58541 h 64.03983 c 4.82119,0 8.73271,-3.84555 8.73271,-8.58541 v -62.95966 c 0,-4.73988 -3.91152,-8.58542 -8.73271,-8.58542 z m -1.09159,71.54508 h -61.85665 c -0.60038,0 -1.09159,-0.48292 -1.09159,-1.07317 v -60.81331 c 0,-0.59025 0.49121,-1.07318 1.09159,-1.07318 h 61.85665 c 0.60038,0 1.09159,0.48293 1.09159,1.07318 v 60.81331 c 0,0.59025 -0.49121,1.07317 -1.09159,1.07317 z"
     id="path305-2-9"
     style="fill:#000000;fill-opacity:1;stroke:#010101;stroke-width:0.180391;stroke-opacity:1" /><path
     d="M 169.23663,211.5353 H 151.2797 v -17.95692 c 0,-2.20346 -1.78696,-3.99042 -3.99042,-3.99042 h -3.99043 c -2.20346,0 -3.99043,1.78696 -3.99043,3.99042 v 17.95692 h -17.95691 c -2.20347,0 -3.99043,1.78697 -3.99043,3.99043 v 3.99043 c 0,2.20346 1.78696,3.99042 3.99043,3.99042 h 17.95691 v 17.95693 c 0,2.20346 1.78697,3.99042 3.99043,3.99042 h 3.99043 c 2.20346,0 3.99042,-1.78696 3.99042,-3.99042 v -17.95693 h 17.95693 c 2.20346,0 3.99042,-1.78696 3.99042,-3.99042 v -3.99043 c 0,-2.20346 -1.78696,-3.99043 -3.99042,-3.99043 z"
     id="path15045-2"
     style="stroke-width:0.124701" /><g
     aria-label="1"
     id="text15257"
     style="font-weight:bold;font-size:106.667px;line-height:1.25;font-family:'Nimbus Sans';-inkscape-font-specification:'Nimbus Sans, Bold';letter-spacing:0px;word-spacing:0px"><path
       d="m 266.20709,29.045182 v 52.160163 h 14.93338 V 5.5784423 h -9.92003 C 268.87376,14.53847 261.08707,19.125151 248.0737,19.125151 v 9.920031 z"
       id="path15376" /></g></svg>
