<?xml version="1.0" encoding="UTF-8" standalone="no"?>
<svg
   viewBox="0 0 584.37231 394.51633"
   version="1.1"
   id="svg13075"
   sodipodi:docname="tool_elevation_ocean.svg"
   width="584.37231"
   height="394.51633"
   inkscape:version="1.2 (dc2aedaf03, 2022-05-15)"
   xmlns:inkscape="http://www.inkscape.org/namespaces/inkscape"
   xmlns:sodipodi="http://sodipodi.sourceforge.net/DTD/sodipodi-0.dtd"
   xmlns="http://www.w3.org/2000/svg"
   xmlns:svg="http://www.w3.org/2000/svg">
  <defs
     id="defs13079" />
  <sodipodi:namedview
     id="namedview13077"
     pagecolor="#ffffff"
     bordercolor="#666666"
     borderopacity="1.0"
     inkscape:showpageshadow="2"
     inkscape:pageopacity="0.0"
     inkscape:pagecheckerboard="0"
     inkscape:deskcolor="#d1d1d1"
     showgrid="false"
     inkscape:zoom="2.0058594"
     inkscape:cx="212.62707"
     inkscape:cy="229.82668"
     inkscape:window-width="3440"
     inkscape:window-height="1412"
     inkscape:window-x="0"
     inkscape:window-y="0"
     inkscape:window-maximized="1"
     inkscape:current-layer="svg13075" />
  <!-- Font Awesome Free 5.15.4 by @fontawesome - https://fontawesome.com License - https://fontawesome.com/license/free (Icons: CC BY 4.0, Fonts: SIL OFL 1.1, Code: MIT License) -->
  <path
     id="path23562"
     style="color:#000000;fill:#000000;stroke-width:1.15285;-inkscape-stroke:none"
     d="m 0.14002104,152.02304 v 32.48835 c 6.60101576,0.86437 13.02776896,2.18283 19.10895896,4.12308 21.147938,6.7474 37.89283,19.31313 48.44357,46.7654 l 0.07539,0.1961 0.07958,0.19369 c 19.518769,47.35408 26.895383,105.68209 55.48194,155.73054 L 146.5911,373.75923 C 122.57541,331.71329 114.97417,275.36105 93.121603,222.20988 79.134596,185.91153 53.443297,166.11133 26.664304,157.56729 17.903118,154.77195 8.9959668,153.03309 0.14002104,152.02304 Z" />
  <path
     id="path62787"
     style="color:#000000;fill:#000000;stroke-width:1.09911"
     d="m 562.53161,161.32296 c -21.99027,-0.18268 -43.85511,9.19734 -57.51536,29.42827 l -0.93817,1.38856 -0.50468,1.61741 c -4.2138,13.49078 -14.02286,23.02767 -26.79233,28.71749 -12.76951,5.68976 -28.26714,6.97919 -41.33399,3.69696 l -0.52563,-0.13204 -0.53401,-0.0748 c -10.11662,-1.43399 -17.35868,-7.44946 -25.54841,-16.46028 -8.15982,-8.97795 -16.38746,-20.66022 -28.50325,-29.46787 -32.02931,-24.79923 -75.40909,-12.7752 -100.88483,13.65455 l -0.61148,0.63596 -0.50888,0.7284 c -12.47849,17.92276 -35.04068,28.01258 -55.16992,22.43484 l -0.36439,-0.10124 -0.37275,-0.0726 c -11.34294,-2.25983 -21.1476,-8.82335 -31.73449,-17.16887 -10.5403,-8.30881 -21.59054,-18.30858 -35.71543,-25.09092 -31.59426,-16.71327 -71.698985,-5.85941 -91.532435,24.97429 l 17.764527,12.62029 C 94.684653,191.69652 124.0213,183.78361 145.50394,195.26023 l 0.20942,0.11223 0.2157,0.10342 c 10.59876,5.058 20.61284,13.80581 31.89154,22.69672 11.13949,8.78112 23.79759,17.74474 40.01469,21.13429 29.1686,8.01166 59.23502,-5.56128 76.75415,-29.64391 19.11444,-19.77087 51.6211,-28.18919 73.15432,-11.40117 l 0.15079,0.11883 0.15705,0.11223 c 8.27425,5.98636 15.92893,16.28731 25.28038,26.57632 9.23617,10.16218 21.00485,20.55633 37.57502,23.11921 17.71321,4.34126 37.13047,2.65664 54.24432,-4.9689 16.58844,-7.39141 31.13975,-20.92858 37.92892,-40.14724 13.31216,-18.77812 39.64924,-22.40661 60.58954,-13.94283 v -24.64201 c -6.87584,-2.02616 -14.01087,-3.1052 -21.13817,-3.16443 z m 1.30254,71.54502 c -21.18131,-0.28415 -42.61279,6.76824 -56.37404,23.70458 l -0.9654,1.1905 -0.54657,1.45238 c -4.14504,11.02805 -14.36295,19.5581 -27.91479,24.57599 -13.55179,5.01793 -29.99595,6.17127 -43.96841,3.25465 l -0.37065,-0.0792 -0.37485,-0.044 c -11.32968,-1.33453 -19.07591,-6.82022 -27.44361,-14.47096 -8.34409,-7.62918 -16.75264,-17.4661 -28.65402,-24.64862 -31.46766,-20.26782 -73.09973,-10.56934 -98.52265,11.34835 l -0.55914,0.48192 -0.47746,0.57216 c -12.76009,15.23 -37.01254,24.54295 -58.86816,19.51027 l -0.25968,-0.0594 -0.26176,-0.044 c -24.53444,-4.06191 -41.31221,-24.69594 -69.03308,-35.77031 -21.20398,-9.38028 -46.10718,-8.38212 -66.107576,1.61962 0.128772,0.22241 0.262534,0.44167 0.383226,0.66898 0.410548,0.77321 0.696379,1.61726 1.143396,2.36781 1.362355,2.28741 3.428538,4.45631 4.812318,6.74035 0.783082,1.29254 1.458183,2.65456 2.173709,3.98964 0.063,0.11751 0.8061,1.62169 1.38632,2.71331 15.154467,-6.53196 34.170307,-7.54822 49.358707,-0.80541 l 0.15914,0.0704 0.16335,0.0638 c 22.37662,8.87399 40.82581,31.42991 72.51981,36.79137 28.14723,6.37707 57.26618,-4.30762 74.84011,-24.46376 19.78717,-17.01613 55.11254,-24.54389 77.94571,-9.75074 l 0.12565,0.0792 0.12565,0.077 c 8.78873,5.28407 16.48412,13.97924 25.89814,22.58668 9.30434,8.50713 20.85519,16.84367 36.62428,18.8633 17.29752,3.5702 36.34832,2.24126 53.17002,-3.98744 16.20693,-6.00101 30.66559,-16.92425 37.65251,-33.33427 10.68034,-12.5281 30.22665,-18.1941 49.38383,-16.06418 4.35818,0.48455 8.59702,1.42047 12.6716,2.65389 V 235.359 c -3.56588,-0.83184 -7.16422,-1.524 -10.79526,-1.9277 -2.99255,-0.33268 -6.01445,-0.52274 -9.04037,-0.56335 z m -1.95382,53.7578 c -21.18132,-0.2842 -42.61277,6.77045 -56.37405,23.70676 l -0.9654,1.18831 -0.54656,1.45238 c -4.14508,11.02805 -14.36295,19.55809 -27.91479,24.57599 -13.55184,5.01793 -29.99599,6.17127 -43.96841,3.25465 l -0.37066,-0.077 -0.37485,-0.044 c -11.32967,-1.33454 -19.07591,-6.82242 -27.44361,-14.47317 -8.33995,-7.6254 -16.74522,-17.45604 -28.63726,-24.63761 -31.46956,-20.28152 -73.11211,-10.58189 -98.53941,11.33955 l -0.55913,0.48193 -0.47747,0.56995 c -12.76005,15.22999 -37.01253,24.54295 -58.86815,19.51027 l -0.25968,-0.0594 -0.26176,-0.0418 c -24.54031,-4.06287 -41.31923,-24.70666 -69.05194,-35.77911 -13.69075,-6.05208 -28.92007,-7.76726 -43.37786,-5.53884 0.19164,0.78839 0.3591,1.58538 0.63662,2.3436 0.42907,1.17228 1.17504,2.19679 1.60411,3.36908 0.46564,1.27223 0.72886,2.61736 1.07009,3.93242 0.75442,2.90731 0.4684,2.56074 1.60621,6.01637 0.33663,1.02238 0.72551,2.02589 1.10361,3.03239 10.43583,-1.17815 21.20373,0.007 30.52616,4.14588 l 0.15916,0.0704 0.16334,0.066 c 22.37662,8.87403 40.82582,31.42772 72.51981,36.78918 28.15035,6.37778 57.27313,-4.30768 74.8464,-24.46817 19.78825,-17.01265 55.10845,-24.53806 77.93943,-9.74634 l 0.12564,0.0814 0.12565,0.0748 c 8.78874,5.28408 16.48414,13.97924 25.89814,22.58668 9.30351,8.50638 20.85317,16.84276 36.6201,18.8633 17.29859,3.57125 36.35116,2.24175 53.17421,-3.98743 16.20689,-6.00102 30.66558,-16.92425 37.6525,-33.33428 10.68034,-12.52809 30.22666,-18.19409 49.38384,-16.06417 5.0555,0.56207 9.9735,1.68105 14.62542,3.24144 v -19.43766 c -4.19695,-1.07918 -8.44955,-1.9624 -12.74908,-2.44043 -2.99259,-0.33272 -6.01449,-0.52275 -9.04037,-0.56334 z" />
</svg>
